{
  "kind": "youtube#searchListResponse",
  "etag": "\"S8kisgyDEblalhHF9ooXPiFFrkc/X6XIdG2YavlKv6GmT_e9CosIoz8\"",
  "regionCode": "IN",
  "pageInfo": {
    "totalResults": 4,
    "resultsPerPage": 2
  },
  "items": [
    {
      "kind": "youtube#searchResult",
      "etag": "\"S8kisgyDEblalhHF9ooXPiFFrkc/eVLTYcxHuUKYM4uJ8khXn23CpD8\"",
      "id": {
        "kind": "youtube#video",
        "videoId": "videoId5"
      },
      "snippet": {
        "publishedAt": "2017-11-28T18:05:30.000Z",
        "title": "title5",
        "description": "description5",
        "thumbnails": {
          "default": {
            "url": "http://i.ymtg.com/vi/5.jpg"
          },
          "medium": {
            "url": "http://i.ymtg.com/vi/5.jpg"
          },
          "high": {
            "url": "http://i.ymtg.com/vi/5.jpg"
          }
        }
      }
    }
  ]
}